%YAML 1.1
%TAG !u! tag:unity3d.com,2011:
--- !u!114 &11400000
MonoBehaviour:
  m_ObjectHideFlags: 0
  m_CorrespondingSourceObject: {fileID: 0}
  m_PrefabInstance: {fileID: 0}
  m_PrefabAsset: {fileID: 0}
  m_GameObject: {fileID: 0}
  m_Enabled: 1
  m_EditorHideFlags: 0
  m_Script: {fileID: 11500000, guid: e74a83985b1164d78862816595b49e33, type: 3}
  m_Name: EnemyStartMoveAction
  m_EditorClassIdentifier: 
  _type: 1
  _movePosition: {x: 1080, y: 360}
  _time: 1
  _actionWaitTime: 0
  _loopCount: 1
  _loopType: 0
  _ease: 27
  _jumpheight: 0
  _jumpCount: 0
  _rotateAngle: 0
  _rotateMode: 0
  _changeScale: {x: 0, y: 0}
  _adverb: 0
  _vibrato: 0
  _strength: 0
  _shakeRandom: 0
  _elastic: 0
